<?xml version="1.0" encoding="UTF-8" standalone="no"?>
<svg
   xmlns:dc="http://purl.org/dc/elements/1.1/"
   xmlns:cc="http://creativecommons.org/ns#"
   xmlns:rdf="http://www.w3.org/1999/02/22-rdf-syntax-ns#"
   xmlns:svg="http://www.w3.org/2000/svg"
   xmlns="http://www.w3.org/2000/svg"
   viewBox="0 0 431.02133 147.93333"
   height="147.93333"
   width="431.02133"
   xml:space="preserve"
   id="svg2"
   version="1.1"><metadata
     id="metadata8"><rdf:RDF><cc:Work
         rdf:about=""><dc:format>image/svg+xml</dc:format><dc:type
           rdf:resource="http://purl.org/dc/dcmitype/StillImage" /><dc:title></dc:title></cc:Work></rdf:RDF></metadata><defs
     id="defs6"><linearGradient
       id="linearGradient30"
       spreadMethod="pad"
       gradientTransform="matrix(-78.372353,78.372353,-78.372353,-78.372353,82.713478,28.23525)"
       gradientUnits="userSpaceOnUse"
       y2="0"
       x2="1"
       y1="0"
       x1="0"><stop
         id="stop24"
         offset="0"
         style="stop-opacity:1;stop-color:#ff8c00" /><stop
         id="stop26"
         offset="0.494624"
         style="stop-opacity:1;stop-color:#ff6715" /><stop
         id="stop28"
         offset="1"
         style="stop-opacity:1;stop-color:#ff3c2b" /></linearGradient><linearGradient
       id="linearGradient52"
       spreadMethod="pad"
       gradientTransform="matrix(116.07876,-81.769615,81.769615,116.07876,-22.921337,105.7907)"
       gradientUnits="userSpaceOnUse"
       y2="0"
       x2="1"
       y1="0"
       x1="0"><stop
         id="stop46"
         offset="0"
         style="stop-opacity:1;stop-color:#e51852" /><stop
         id="stop48"
         offset="0.45923171"
         style="stop-opacity:1;stop-color:#ac133c" /><stop
         id="stop50"
         offset="1"
         style="stop-opacity:1;stop-color:#ac133c" /></linearGradient><linearGradient
       id="linearGradient74"
       spreadMethod="pad"
       gradientTransform="matrix(0,36.385296,-36.385296,0,46.58498,33.085472)"
       gradientUnits="userSpaceOnUse"
       y2="0"
       x2="1"
       y1="0"
       x1="0"><stop
         id="stop68"
         offset="0"
         style="stop-opacity:1;stop-color:#e51852" /><stop
         id="stop70"
         offset="0.45923171"
         style="stop-opacity:1;stop-color:#ac133c" /><stop
         id="stop72"
         offset="1"
         style="stop-opacity:1;stop-color:#ac133c" /></linearGradient><clipPath
       id="clipPath84"
       clipPathUnits="userSpaceOnUse"><path
         id="path82"
         d="M 0,110.95 H 323.266 V 0 H 0 Z" /></clipPath></defs><g
     transform="matrix(1.3333333,0,0,-1.3333333,0,147.93333)"
     id="g10"><g
       id="g12"><g
         id="g14"><g
           id="g20"><g
             id="g22"><path
               id="path32"
               style="fill:url(#linearGradient30);stroke:none"
               d="m 45.956,110.95 c -11.761,0 -23.524,-4.486 -32.497,-13.46 v 0 C 11.362,95.392 9.512,93.14 7.905,90.773 v 0 c 6.397,9.323 17.126,15.442 29.288,15.442 v 0 c 19.607,0 35.501,-15.895 35.501,-35.501 v 0 c 0,-6.299 -1.648,-12.211 -4.524,-17.34 v 0 c -0.689,-1.318 -1.509,-2.585 -2.447,-3.788 v 0 C 63.95,47.197 61.883,45.04 59.578,43.165 v 0 L 45.956,29.542 31.184,14.771 45.956,0 78.452,32.496 c 17.947,17.948 17.947,47.046 0,64.994 v 0 c -8.974,8.974 -20.735,13.46 -32.496,13.46 z" /></g></g></g></g><g
       id="g34"><g
         id="g36"><g
           id="g42"><g
             id="g44"><path
               id="path54"
               style="fill:url(#linearGradient52);stroke:none"
               d="M 7.905,90.773 C 7.816,90.642 7.725,90.511 7.637,90.38 v 0 C 7.372,89.981 7.111,89.579 6.862,89.169 v 0 C 6.842,89.138 6.824,89.106 6.804,89.075 v 0 C 2.29,81.751 0.022,73.433 0,65.112 v 0 -0.248 C 0.032,53.146 4.518,41.437 13.459,32.496 v 0 L 23.717,22.239 38.488,37.01 28.23,47.268 c -9.774,9.773 -9.774,25.676 0,35.45 v 0 c 4.735,4.735 11.03,7.342 17.726,7.342 v 0 c 6.695,0 12.99,-2.607 17.725,-7.342 v 0 C 71.61,74.789 73.105,62.826 68.17,53.374 v 0 c 2.876,5.129 4.524,11.041 4.524,17.34 v 0 c 0,19.606 -15.894,35.501 -35.501,35.501 v 0 c -12.162,0 -22.891,-6.119 -29.288,-15.442" /></g></g></g></g><g
       id="g56"><g
         id="g58"><g
           id="g64"><g
             id="g66"><path
               id="path76"
               style="fill:url(#linearGradient74);stroke:none"
               d="m 32.586,71.393 c -1.07,-2.114 -1.669,-4.5 -1.669,-7.032 v 0 c 0,-8.649 7.019,-15.656 15.668,-15.656 v 0 c 8.649,0 15.668,7.007 15.668,15.656 v 0 c 0,2.544 -0.599,4.932 -1.683,7.058 v 0 c -2.569,5.114 -7.866,8.61 -13.985,8.61 v 0 c -6.118,0 -11.429,-3.509 -13.999,-8.636" /></g></g></g></g><g
       id="g78"><g
         clip-path="url(#clipPath84)"
         id="g80"><g
           transform="translate(119.0826,61.6108)"
           id="g86"><path
             id="path88"
             style="fill:#292929;fill-opacity:1;fill-rule:nonzero;stroke:none"
             d="m 0,0 c -0.202,2.326 -1.753,3.573 -4.55,3.573 -2.427,0 -3.877,-1.011 -3.877,-2.731 0,-2.09 2.563,-2.258 7.349,-3.606 4.28,-1.214 7.011,-2.865 7.011,-6.876 0,-5.663 -4.989,-7.753 -9.876,-7.753 -6.506,0 -10.348,3.135 -10.415,8.561 h 5.224 c 0.101,-3.235 2.225,-4.516 5.427,-4.516 2.764,0 4.449,1.213 4.449,3.202 0,1.888 -1.618,2.225 -6.573,3.641 -3.91,1.112 -7.651,2.089 -7.651,6.977 0,4.348 3.64,7.179 9.235,7.179 C 0.81,7.651 4.888,5.359 4.989,0 Z" /></g><g
           transform="translate(148.608,54.3301)"
           id="g90"><path
             id="path92"
             style="fill:#292929;fill-opacity:1;fill-rule:nonzero;stroke:none"
             d="m 0,0 c 0,-6.842 -3.202,-10.044 -10.213,-10.044 -7.145,0 -10.348,3.269 -10.348,10.111 v 14.359 h 5.258 V 0.067 c 0,-3.673 1.045,-5.763 5.157,-5.763 4.045,0 4.888,2.224 4.888,5.763 V 14.426 H 0 Z" /></g><g
           transform="translate(158.4156,57.5322)"
           id="g94"><path
             id="path96"
             style="fill:#292929;fill-opacity:1;fill-rule:nonzero;stroke:none"
             d="M 0,0 H 4.686 C 7.045,0 8.798,0.775 8.798,3.438 8.798,6 7.045,6.91 4.719,6.91 H 0 Z m 5.124,11.224 c 5.19,0 8.797,-2.427 8.797,-7.719 0,-5.224 -3.708,-7.651 -8.527,-7.651 H 0 v -8.629 h -5.225 v 23.999 z" /></g><g
           transform="translate(193.6383,64.4419)"
           id="g98"><path
             id="path100"
             style="fill:#292929;fill-opacity:1;fill-rule:nonzero;stroke:none"
             d="m 0,0 h -12.775 v -5.225 h 11.73 V -9.37 h -11.73 v -5.899 h 13.01 v -4.416 H -18 V 4.314 H 0 Z" /></g><g
           transform="translate(202.9059,57.9702)"
           id="g102"><path
             id="path104"
             style="fill:#292929;fill-opacity:1;fill-rule:nonzero;stroke:none"
             d="M 0,0 H 4.988 C 7.449,0 9.64,0.438 9.64,3.404 9.64,6.168 7.449,6.64 5.225,6.64 H 0 Z m 6.707,10.786 c 4.416,0 8.09,-1.989 8.09,-6.808 0,-2.798 -1.415,-4.989 -3.809,-5.899 2.663,-0.539 3.337,-3.236 3.539,-5.596 0.135,-1.516 0.202,-4.819 1.147,-5.696 H 10.213 C 9.606,-12 9.606,-9.606 9.472,-8.292 9.135,-4.988 8.123,-3.809 4.686,-3.809 H 0 v -9.404 h -5.225 v 23.999 z" /></g><g
           transform="translate(227.0719,57.5322)"
           id="g106"><path
             id="path108"
             style="fill:#292929;fill-opacity:1;fill-rule:nonzero;stroke:none"
             d="M 0,0 H 4.685 C 7.045,0 8.797,0.775 8.797,3.438 8.797,6 7.045,6.91 4.719,6.91 H 0 Z m 5.123,11.224 c 5.191,0 8.798,-2.427 8.798,-7.719 0,-5.224 -3.708,-7.651 -8.528,-7.651 H 0 v -8.629 h -5.225 v 23.999 z" /></g><g
           transform="translate(248.5748,56.8242)"
           id="g110"><path
             id="path112"
             style="fill:#292929;fill-opacity:1;fill-rule:nonzero;stroke:none"
             d="m 0,0 c 0,-5.157 2.494,-8.258 6.573,-8.292 3.978,0 6.438,3.168 6.438,8.292 0,5.056 -2.494,8.191 -6.505,8.191 C 2.528,8.191 0,4.989 0,0 m 18.337,-0.101 c 0,-7.483 -4.753,-12.539 -11.798,-12.539 -7.111,0 -11.864,5.022 -11.864,12.539 0,7.618 4.719,12.606 11.898,12.606 7.011,0 11.764,-5.089 11.764,-12.606" /></g><path
           id="path114"
           style="fill:#292929;fill-opacity:1;fill-rule:nonzero;stroke:none"
           d="m 275.809,44.757 h -5.292 v 23.999 h 5.292 z" /><g
           transform="translate(280.4596,68.7563)"
           id="g116"><path
             id="path118"
             style="fill:#292929;fill-opacity:1;fill-rule:nonzero;stroke:none"
             d="m 0,0 h 5.359 l 9.876,-16.078 V 0 h 5.057 V -23.999 H 15.033 L 5.09,-7.887 V -23.999 H 0 Z" /></g><g
           transform="translate(323.2662,64.2734)"
           id="g120"><path
             id="path122"
             style="fill:#292929;fill-opacity:1;fill-rule:nonzero;stroke:none"
             d="m 0,0 h -7.213 v -19.516 h -5.292 V 0 h -7.214 V 4.483 H 0 Z" /></g></g></g></g></svg>